{
  "project_info": {
    "project_number": "270967330161",
    "firebase_url": "https://fir-pocketpills.firebaseio.com",
    "project_id": "firebase-pocketpills",
    "storage_bucket": "firebase-pocketpills.appspot.com"
  },
  "client": [
    {
      "client_info": {
        "mobilesdk_app_id": "1:270967330161:android:5075ebcad92823fd",
        "android_client_info": {
          "package_name": "com.pocketpills"
        }
      },
      "oauth_client": [
        {
          "client_id": "270967330161-aonr7n3d0a49th7t80emfbc7ti9p6dfo.apps.googleusercontent.com",
          "client_type": 1,
          "android_info": {
            "package_name": "com.pocketpills",
            "certificate_hash": "de5ca82b3f6d320cb30fdb25c25d5bb879d35632"
          }
        },
        {
          "client_id": "270967330161-prq9aadh0e4f8ucc3ml497d2kuq9ddvt.apps.googleusercontent.com",
          "client_type": 1,
          "android_info": {
            "package_name": "com.pocketpills",
            "certificate_hash": "e7f7429405d6401ab326bbe7787cb4a5a986db0f"
          }
        },
        {
          "client_id": "270967330161-3l7772amnqv680g4s9pjb5o3dd8nnoht.apps.googleusercontent.com",
          "client_type": 3
        }
      ],
      "api_key": [
        {
          "current_key": "AIzaSyD_kmhoDKK-Ee53SlNUH6TrG0MIsZIJkSE"
        }
      ],
      "services": {
        "appinvite_service": {
          "other_platform_oauth_client": [
            {
              "client_id": "270967330161-9aggcfdfpgk48hdqot5nens0j3101tvb.apps.googleusercontent.com",
              "client_type": 3
            },
            {
              "client_id": "270967330161-v3sr7jvpkvq403v08ae5r8ojccgp1rib.apps.googleusercontent.com",
              "client_type": 2,
              "ios_info": {
                "bundle_id": "com.Pocketpills",
                "app_store_id": "1367442074"
              }
            }
          ]
        }
      }
    }
  ],
  "configuration_version": "1"
}
